<svg id="Group_2592" data-name="Group 2592" xmlns="http://www.w3.org/2000/svg" width="51.518" height="51.518" viewBox="0 0 51.518 51.518">
  <g id="checklist_1_" data-name="checklist (1)" transform="translate(0 0)">
    <g id="Group_2577" data-name="Group 2577" transform="translate(42.237 8.106)">
      <g id="Group_2576" data-name="Group 2576">
        <path id="Path_1880" data-name="Path 1880" d="M430.791,97.389l-2.767-5.534a1.547,1.547,0,0,0-2.767,0l-2.767,5.534a4.665,4.665,0,0,0-.49,2.075v27.111a4.64,4.64,0,1,0,9.281,0V99.464A4.663,4.663,0,0,0,430.791,97.389Zm-2.6,29.187a1.547,1.547,0,0,1-3.094,0v-1.547h3.094Zm0-4.64h-3.094V103.374h3.094Zm0-21.655h-3.094v-.816a1.556,1.556,0,0,1,.163-.692l1.384-2.767,1.384,2.767a1.556,1.556,0,0,1,.163.692Z" transform="translate(-422 -91)" fill="#ff9100"/>
      </g>
    </g>
    <g id="Group_2579" data-name="Group 2579">
      <g id="Group_2578" data-name="Group 2578">
        <path id="Path_1881" data-name="Path 1881" d="M34.445,6.037h-4.75a4.5,4.5,0,0,0-4.235-3.019H23.705a4.482,4.482,0,0,0-8.472,0H13.478A4.5,4.5,0,0,0,9.243,6.037H4.493A4.516,4.516,0,0,0,0,10.565V46.99a4.516,4.516,0,0,0,4.493,4.528H34.445a4.516,4.516,0,0,0,4.493-4.528V10.565A4.516,4.516,0,0,0,34.445,6.037ZM11.981,7.547a1.505,1.505,0,0,1,1.5-1.509h3a1.5,1.5,0,0,0,1.5-1.509,1.5,1.5,0,1,1,3,0,1.5,1.5,0,0,0,1.5,1.509h3a1.505,1.505,0,0,1,1.5,1.509V9.056H11.981ZM35.942,46.99a1.505,1.505,0,0,1-1.5,1.509H4.493A1.505,1.505,0,0,1,3,46.99V10.565a1.505,1.505,0,0,1,1.5-1.509H8.986v1.509a1.5,1.5,0,0,0,1.5,1.509H28.454a1.5,1.5,0,0,0,1.5-1.509V9.056h4.493a1.505,1.505,0,0,1,1.5,1.509Z" fill="#ff9100"/>
      </g>
    </g>
    <g id="Group_2581" data-name="Group 2581" transform="translate(6.187 15.113)">
      <g id="Group_2580" data-name="Group 2580">
        <path id="Path_1882" data-name="Path 1882" d="M71.921,151.453a1.547,1.547,0,0,0-2.187,0l-5.093,5.093-2-2a1.547,1.547,0,1,0-2.187,2.187l3.094,3.094a1.547,1.547,0,0,0,2.187,0l6.187-6.187A1.547,1.547,0,0,0,71.921,151.453Z" transform="translate(-60 -151)" fill="#ff9100"/>
      </g>
    </g>
    <g id="Group_2583" data-name="Group 2583" transform="translate(6.187 25.623)">
      <g id="Group_2582" data-name="Group 2582">
        <path id="Path_1883" data-name="Path 1883" d="M71.921,256.453a1.547,1.547,0,0,0-2.187,0l-5.093,5.093-2-2a1.547,1.547,0,1,0-2.187,2.187l3.094,3.094a1.547,1.547,0,0,0,2.187,0l6.187-6.187A1.547,1.547,0,0,0,71.921,256.453Z" transform="translate(-60 -256)" fill="#ff9100"/>
      </g>
    </g>
    <g id="Group_2585" data-name="Group 2585" transform="translate(6.187 35.947)">
      <g id="Group_2584" data-name="Group 2584">
        <path id="Path_1884" data-name="Path 1884" d="M71.921,361.453a1.547,1.547,0,0,0-2.187,0l-5.093,5.093-2-2a1.547,1.547,0,1,0-2.187,2.187l3.094,3.093a1.547,1.547,0,0,0,2.187,0l6.187-6.187A1.547,1.547,0,0,0,71.921,361.453Z" transform="translate(-60 -361)" fill="#ff9100"/>
      </g>
    </g>
    <g id="Group_2587" data-name="Group 2587" transform="translate(20.97 39.282)">
      <g id="Group_2586" data-name="Group 2586">
        <path id="Path_1885" data-name="Path 1885" d="M220.827,391h-9.281a1.547,1.547,0,1,0,0,3.094h9.281a1.547,1.547,0,0,0,0-3.094Z" transform="translate(-210 -391)" fill="#ff9100"/>
      </g>
    </g>
    <g id="Group_2589" data-name="Group 2589" transform="translate(20.97 18.184)">
      <g id="Group_2588" data-name="Group 2588">
        <path id="Path_1886" data-name="Path 1886" d="M220.827,181h-9.281a1.547,1.547,0,1,0,0,3.094h9.281a1.547,1.547,0,0,0,0-3.094Z" transform="translate(-210 -181)" fill="#ff9100"/>
      </g>
    </g>
    <g id="Group_2591" data-name="Group 2591" transform="translate(20.97 28.733)">
      <g id="Group_2590" data-name="Group 2590">
        <path id="Path_1887" data-name="Path 1887" d="M220.827,286h-9.281a1.547,1.547,0,1,0,0,3.094h9.281a1.547,1.547,0,1,0,0-3.094Z" transform="translate(-210 -286)" fill="#ff9100"/>
      </g>
    </g>
  </g>
</svg>
